{
  "openapi": "3.0.0",
  "info": {
    "title": "Challange Chapter 8",
    "version": "1.0.0"
  },
  "servers": [
    {
      "url": "http://localhost:4000"
    }
  ],
  "paths": {
    "/api": {
      "get": {
        "tags": [
          "default"
        ],
        "summary": "Test API",
        "responses": {
          "200": {
            "description": "Successful response",
            "content": {
              "application/json": {}
            }
          }
        }
      }
    },
    "/api/v1": {
      "get": {
        "tags": [
          "default"
        ],
        "summary": "Test Route",
        "responses": {
          "200": {
            "description": "Successful response",
            "content": {
              "application/json": {}
            }
          }
        }
      }
    },
    "/api/v1/players": {
      "get": {
        "tags": [
          "default"
        ],
        "summary": "Get All Players",
        "responses": {
          "200": {
            "description": "Successful response",
            "content": {
              "application/json": {}
            }
          }
        }
      },
      "post": {
        "tags": [
          "default"
        ],
        "summary": "Create Player",
        "requestBody": {
          "content": {
            "application/json": {
              "schema": {
                "type": "object",
                "example": {
                  "username": "Akbar",
                  "email": "akbar@mail.com",
                  "password": "1234",
                  "experience": 100
                }
              }
            }
          }
        },
        "responses": {
          "200": {
            "description": "Successful response",
            "content": {
              "application/json": {}
            }
          }
        }
      }
    },
    "/api/v1/players/{id}": {
      "get": {
        "tags": [
          "default"
        ],
        "summary": "Get Player",
        "parameters": [
          {
            "name": "id",
            "in": "path",
            "schema": {
              "type": "integer"
            },
            "required": true,
            "example": "4"
          }
        ],
        "responses": {
          "200": {
            "description": "Successful response",
            "content": {
              "application/json": {}
            }
          }
        }
      },
      "put": {
        "tags": [
          "default"
        ],
        "summary": "Update Player",
        "requestBody": {
          "content": {
            "application/json": {
              "schema": {
                "type": "object",
                "example": {
                  "username": "Muksidar",
                  "email": "muksidar@mail.com"
                }
              }
            }
          }
        },
        "parameters": [
          {
            "name": "id",
            "in": "path",
            "schema": {
              "type": "integer"
            },
            "required": true,
            "example": "4"
          }
        ],
        "responses": {
          "200": {
            "description": "Successful response",
            "content": {
              "application/json": {}
            }
          }
        }
      },
      "delete": {
        "tags": [
          "default"
        ],
        "summary": "Delete Player",
        "parameters": [
          {
            "name": "id",
            "in": "path",
            "schema": {
              "type": "integer"
            },
            "required": true,
            "example": "5"
          }
        ],
        "responses": {
          "200": {
            "description": "Successful response",
            "content": {
              "application/json": {}
            }
          }
        }
      }
    }
  }
}